…
for(i in 1:nRow){
  temp <-project(df[i,4:5], proj4string, inverse=TRUE)
  df[i,6] <- temp$y
  df[i,7] <-temp$x
}
```

    ## Warning in project(df[i, 4:5], proj4string, inverse = TRUE): NAs introduced
    ## by coercion

``` r
head(df,60)
```

    ## # A tibble: 60 x 7
    ##    Facility  Name                   Address    POINT_X  POINT_Y   Lat   Lon
    ##    <chr>     <chr>                  <chr>      <chr>      <dbl> <dbl> <dbl>
    ##  1 Basketba… West Lions Park Baske… 20 Granvi… 478397.…  4.76e6  43.0 -81.3
    ##  2 Basketba… West Lions Park Baske… 20 Granvi… 478407.…  4.76e6  43.0 -81.3
    ##  3 Basketba… Carling Park Basketba… 675 Grosv… 480797.…  4.76e6  43.0 -81.2
    ##  4 Basketba… Carling Park Basketba… 675 Grosv… 480791.…  4.76e6  43.0 -81.2
    ##  5 Basketba… Doidge Park Basketbal… 300 Cromw… 479422.…  4.76e6  43.0 -81.3
    ##  6 Basketba… Southeast Optimist Pa… 237 Dever… 484074.…  4.76e6  43.0 -81.2
    ##  7 Basketba… St. Stephen's Park Ba… 1030 Mitc… 481777.…  4.75e6  42.9 -81.2
    ##  8 Basketba… Westminster Optimist … 650 Osgoo… 483116.…  4.75e6  42.9 -81.2
    ##  9 Basketba… Huron Heights Park Ba… 185 McNay… 481821.…  4.76e6  43.0 -81.2
    ## 10 Basketba… Culver Park Basketbal… 1735 Culv… 485117.…  4.76e6  43.0 -81.2
    ## # … with 50 more rows
…
